IDA_HW6-Group66
…
IDA_HW6-Group66

987144, 987154 And 986384

December 16, 2019

Homework 6: Models

Exerise 1: Common probability distributions in R

Binomial distribution

Plot the binomial distribution

## # A tibble: 100 x 3
##    theta     k   value
##    <dbl> <int>   <dbl>
##  1   0.2     0 0.00472
##  2   0.2     1 0.0283 
##  3   0.2     2 0.0815 
##  4   0.2     3 0.149  
##  5   0.2     4 0.196  
##  6   0.2     5 0.196  
##  7   0.2     6 0.155  
##  8   0.2     7 0.0998 
##  9   0.2     8 0.0530 
## 10   0.2     9 0.0236 
## # ... with 90 more rows
…
